<?xml version="1.0" encoding="UTF-8" standalone="no"?>
<!-- Created with Inkscape (http://www.inkscape.org/) -->

<svg
   width="210mm"
   height="297mm"
   viewBox="0 0 210 297"
   version="1.1"
   id="svg5"
   inkscape:version="1.1.1 (3bf5ae0d25, 2021-09-20)"
   sodipodi:docname="blood-pens.svg"
   xmlns:inkscape="http://www.inkscape.org/namespaces/inkscape"
   xmlns:sodipodi="http://sodipodi.sourceforge.net/DTD/sodipodi-0.dtd"
   xmlns="http://www.w3.org/2000/svg"
   xmlns:svg="http://www.w3.org/2000/svg">
  <sodipodi:namedview
     id="namedview7"
     pagecolor="#ffffff"
     bordercolor="#999999"
     borderopacity="1"
     inkscape:pageshadow="0"
     inkscape:pageopacity="0"
     inkscape:pagecheckerboard="0"
     inkscape:document-units="mm"
     showgrid="true"
     inkscape:snap-global="true"
     inkscape:zoom="2.7567082"
     inkscape:cx="-411.17881"
     inkscape:cy="470.3073"
     inkscape:window-width="1920"
     inkscape:window-height="1016"
     inkscape:window-x="0"
     inkscape:window-y="0"
     inkscape:window-maximized="1"
     inkscape:current-layer="layer1"
     showguides="false"
     inkscape:lockguides="false">
    <inkscape:grid
       type="xygrid"
       id="grid948"
       spacingx="3.5"
       spacingy="3.5"
       units="mm"
       color="#888888"
       opacity="1"
       empcolor="#3c3c3c"
       empopacity="1"
       dotted="false"
       originx="0"
       originy="0" />
  </sodipodi:namedview>
  <defs
     id="defs2">
    <marker
       style="overflow:visible"
       id="CurvyCross"
       refX="0.0"
       refY="0.0"
       orient="auto"
       inkscape:stockid="CurvyCross"
       inkscape:isstock="true">
      <g
         transform="scale(0.6)"
         id="g13292">
        <path
           style="fill:none;fill-rule:evenodd;stroke:context-stroke;stroke-width:1.0pt"
           d="M 4.6254930,-5.0456926 C 1.8654930,-5.0456926 -0.37450702,-2.8056926 -0.37450702,-0.045692580 C -0.37450702,2.7143074 1.8654930,4.9543074 4.6254930,4.9543074"
           id="path13288" />
        <path
           style="fill:none;fill-rule:evenodd;stroke:context-stroke;stroke-width:1.0pt"
           d="M -5.4129913,-5.0456926 C -2.6529913,-5.0456926 -0.41299131,-2.8056926 -0.41299131,-0.045692580 C -0.41299131,2.7143074 -2.6529913,4.9543074 -5.4129913,4.9543074"
           id="path13290" />
      </g>
    </marker>
    <marker
       style="overflow:visible"
       id="Tail"
       refX="0.0"
       refY="0.0"
       orient="auto"
       inkscape:stockid="Tail"
       inkscape:isstock="true">
      <g
         transform="scale(-1.2)"
         id="g13146">
        <path
           style="fill:none;fill-rule:evenodd;stroke:context-stroke;stroke-width:0.8;stroke-linecap:round"
           d="M -3.8048674,-3.9585227 L 0.54352094,0"
           id="path13134" />
        <path
           style="fill:none;fill-rule:evenodd;stroke:context-stroke;stroke-width:0.8;stroke-linecap:round"
           d="M -1.2866832,-3.9585227 L 3.0617053,0"
           id="path13136" />
        <path
           style="fill:none;fill-rule:evenodd;stroke:context-stroke;stroke-width:0.8;stroke-linecap:round"
           d="M 1.3053582,-3.9585227 L 5.6537466,0"
           id="path13138" />
        <path
           style="fill:none;fill-rule:evenodd;stroke:context-stroke;stroke-width:0.8;stroke-linecap:round"
           d="M -3.8048674,4.1775838 L 0.54352094,0.21974226"
           id="path13140" />
        <path
           style="fill:none;fill-rule:evenodd;stroke:context-stroke;stroke-width:0.8;stroke-linecap:round"
           d="M -1.2866832,4.1775838 L 3.0617053,0.21974226"
           id="path13142" />
        <path
           style="fill:none;fill-rule:evenodd;stroke:context-stroke;stroke-width:0.8;stroke-linecap:round"
           d="M 1.3053582,4.1775838 L 5.6537466,0.21974226"
           id="path13144" />
      </g>
    </marker>
    <marker
       style="overflow:visible"
       id="DotL"
       refX="0.0"
       refY="0.0"
       orient="auto"
       inkscape:stockid="DotL"
       inkscape:isstock="true">
      <path
         transform="scale(0.8) translate(7.4, 1)"
         style="fill-rule:evenodd;fill:context-stroke;stroke:context-stroke;stroke-width:1.0pt"
         d="M -2.5,-1.0 C -2.5,1.7600000 -4.7400000,4.0 -7.5,4.0 C -10.260000,4.0 -12.5,1.7600000 -12.5,-1.0 C -12.5,-3.7600000 -10.260000,-6.0 -7.5,-6.0 C -4.7400000,-6.0 -2.5,-3.7600000 -2.5,-1.0 z "
         id="path13159" />
    </marker>
    <marker
       style="overflow:visible;"
       id="Arrow1Send"
       refX="0.0"
       refY="0.0"
       orient="auto"
       inkscape:stockid="Arrow1Send"
       inkscape:isstock="true">
      <path
         transform="scale(0.2) rotate(180) translate(6,0)"
         style="fill-rule:evenodd;fill:context-stroke;stroke:context-stroke;stroke-width:1.0pt;"
         d="M 0.0,0.0 L 5.0,-5.0 L -12.5,0.0 L 5.0,5.0 L 0.0,0.0 z "
         id="path13113" />
    </marker>
    <filter
       inkscape:collect="always"
       style="color-interpolation-filters:sRGB"
       id="filter6928"
       x="-0.16940416"
       y="-0.16940416"
       width="1.3388083"
       height="1.3388083">
      <feGaussianBlur
         inkscape:collect="always"
         stdDeviation="0.4353829"
         id="feGaussianBlur6930" />
    </filter>
  </defs>
  <g
     inkscape:groupmode="layer"
     id="layer4"
     inkscape:label="blueground"
     style="display:inline"
     sodipodi:insensitive="true">
    <rect
       style="display:inline;fill:#1c5aa8;fill-opacity:1;stroke:#3465a4;stroke-width:0.264582;stroke-opacity:1"
       id="rect11716"
       width="310.49658"
       height="265.31744"
       x="-287"
       y="-17.5" />
  </g>
  <g
     inkscape:groupmode="layer"
     id="layer1"
     inkscape:label="map">
    <rect
       style="display:inline;fill:#d3d7cf;stroke:#000000;stroke-width:0.264582"
       id="rect3469"
       width="94.5"
       height="27.999998"
       x="-266"
       y="-14" />
    <rect
       style="display:inline;fill:#d3d7cf;stroke:#000000;stroke-width:0.264582"
       id="rect3573"
       width="3.4999847"
       height="7"
       x="-171.29579"
       y="-3.5" />
    <rect
       style="fill:#d3d7cf;stroke:#000000;stroke-width:0.264582"
       id="rect2781"
       width="21"
       height="7"
       x="-286.99997"
       y="-3.5" />
    <rect
       style="fill:#ffffff;fill-opacity:1;stroke:#000000;stroke-width:0.264582;stroke-opacity:1"
       id="rect5835"
       width="1.4238449"
       height="3.5442319"
       x="-266.36551"
       y="0" />
    <rect
       style="fill:#ffffff;fill-opacity:1;stroke:#000000;stroke-width:0.264582;stroke-opacity:1"
       id="rect5833"
       width="1.4238449"
       height="3.5442319"
       x="-266.36551"
       y="-3.4914398" />
    <rect
       style="fill:#ffffff;fill-opacity:1;stroke:#000000;stroke-width:0.264582;stroke-opacity:1"
       id="rect3842"
       width="1.4238449"
       height="3.5442319"
       x="-172.17375"
       y="0" />
    <rect
       style="fill:#ffffff;fill-opacity:1;stroke:#000000;stroke-width:0.264582;stroke-opacity:1"
       id="rect3844"
       width="1.4238449"
       height="3.5442319"
       x="-172.17375"
       y="-3.4914398" />
    <circle
       style="fill:#babdb6;stroke:#888a85;stroke-width:0.264582"
       id="path3868"
       cx="-260.75"
       cy="1.75"
       r="1.75" />
    <circle
       style="fill:#babdb6;stroke:#888a85;stroke-width:0.264582"
       id="circle3986"
       cx="-253.7314"
       cy="-1.6178182"
       r="1.75" />
    <circle
       style="fill:#babdb6;stroke:#888a85;stroke-width:0.264582"
       id="circle3988"
       cx="-246.68144"
       cy="-1.7056261"
       r="1.75" />
    <circle
       style="fill:#babdb6;stroke:#888a85;stroke-width:0.264582"
       id="circle3990"
       cx="-239.88188"
       cy="1.8764048"
       r="1.75" />
    <circle
       style="fill:#babdb6;stroke:#888a85;stroke-width:0.264582"
       id="circle3992"
       cx="-232.83192"
       cy="1.7885969"
       r="1.75" />
    <circle
       style="fill:#babdb6;stroke:#888a85;stroke-width:0.264582"
       id="circle3994"
       cx="-225.80801"
       cy="5.3069429"
       r="1.75" />
    <circle
       style="fill:#babdb6;stroke:#888a85;stroke-width:0.264582"
       id="circle3996"
       cx="-218.71519"
       cy="1.8764048"
       r="1.75" />
    <circle
       style="fill:#babdb6;stroke:#888a85;stroke-width:0.264582"
       id="circle3998"
       cx="-211.66524"
       cy="1.7885969"
       r="1.75" />
    <circle
       style="fill:#babdb6;stroke:#888a85;stroke-width:0.264582"
       id="circle4000"
       cx="-204.68741"
       cy="-1.7201"
       r="1.75" />
    <circle
       style="fill:#babdb6;stroke:#888a85;stroke-width:0.264582"
       id="circle4002"
       cx="-197.90686"
       cy="1.7885969"
       r="1.75" />
    <circle
       style="fill:#babdb6;stroke:#888a85;stroke-width:0.264582"
       id="circle4004"
       cx="-190.88295"
       cy="5.3069429"
       r="1.75" />
    <circle
       style="fill:#babdb6;stroke:#888a85;stroke-width:0.264582"
       id="circle4006"
       cx="-184.0038"
       cy="1.6027763"
       r="1.75" />
    <circle
       style="fill:#babdb6;stroke:#888a85;stroke-width:0.264582"
       id="circle4008"
       cx="-176.91098"
       cy="-1.8277619"
       r="1.75" />
    <path
       id="rect6452"
       style="fill:#d3d7cf;stroke:#000000;stroke-width:0.999995"
       d="m -873.07031,59.247407 0,33.350249 H -1005.3535 V 198.42578 h 145.5117 V 92.597656 63.832031 Z"
       transform="scale(0.26458333)"
       sodipodi:nodetypes="cccccccc" />
    <path
       id="rect6940"
       style="fill:#d3d7cf;stroke:#000000;stroke-width:0.999995"
       d="M -780.44531,62.521484 V 92.597656 198.42578 h 145.51172 V 92.597656 H -767.2168 l 0,-34.057556 z"
       transform="scale(0.26458333)"
       sodipodi:nodetypes="cccccccc" />
    <rect
       style="fill:#d3d7cf;stroke:#000000;stroke-width:0.264582"
       id="rect6938"
       width="21"
       height="7"
       x="-227.46239"
       y="35.157661" />
    <rect
       style="fill:#ffffff;fill-opacity:1;stroke:#000000;stroke-width:0.264582;stroke-opacity:1"
       id="rect6536"
       width="1.4238449"
       height="3.5442319"
       x="-228.2655"
       y="38.629166" />
    <rect
       style="fill:#ffffff;fill-opacity:1;stroke:#000000;stroke-width:0.264582;stroke-opacity:1"
       id="rect6538"
       width="1.4238449"
       height="3.5442319"
       x="-228.2655"
       y="35.137726" />
    <circle
       style="mix-blend-mode:normal;fill:#ffffff;stroke:#ffffff;stroke-width:0.223555;filter:url(#filter6928)"
       id="circle6886"
       cx="-255.52489"
       cy="31.580788"
       r="3.4140143"
       transform="matrix(1.1835189,0,0,1.1835189,46.89364,-5.7956706)" />
    <circle
       style="fill:#babdb6;stroke:#888a85;stroke-width:0.264582"
       id="circle6728"
       cx="-255.52489"
       cy="31.580788"
       r="3.4140143" />
    <circle
       style="mix-blend-mode:normal;fill:#ffffff;stroke:#ffffff;stroke-width:0.223555;filter:url(#filter6928)"
       id="circle6932"
       cx="-255.52489"
       cy="31.580788"
       r="3.4140143"
       transform="matrix(1.1835189,0,0,1.1835189,46.89364,7.9626625)" />
    <circle
       style="fill:#babdb6;stroke:#888a85;stroke-width:0.264582"
       id="circle6730"
       cx="-255.52489"
       cy="45.339123"
       r="3.4140143" />
    <rect
       style="fill:#ffffff;fill-opacity:1;stroke:#000000;stroke-width:0.264582;stroke-opacity:1"
       id="rect6934"
       width="1.4238449"
       height="3.5442319"
       x="-207.09882"
       y="38.629166" />
    <rect
       style="fill:#ffffff;fill-opacity:1;stroke:#000000;stroke-width:0.264582;stroke-opacity:1"
       id="rect6936"
       width="1.4238449"
       height="3.5442319"
       x="-207.09882"
       y="35.137726" />
    <g
       id="g5154"
       transform="translate(10.530552,0.1565931)">
      <path
         style="fill:#2e3436;stroke:#000000;stroke-width:0.264583px;stroke-linecap:butt;stroke-linejoin:miter;stroke-opacity:1"
         d="m -183.88619,30.601303 0.30013,-4.614114 1.46998,-0.618129 0.99138,0.263318 0.54737,0.658176 0.19659,4.37884 z"
         id="path5148" />
      <text
         xml:space="preserve"
         style="font-style:normal;font-weight:normal;font-size:7.57471px;line-height:1.25;font-family:sans-serif;fill:#000000;fill-opacity:1;stroke:none;stroke-width:0.264583"
         x="179.47049"
         y="-25.247768"
         id="text5152"
         transform="scale(-1)"><tspan
           sodipodi:role="line"
           id="tspan5150"
           style="stroke:none;stroke-width:0.264583"
           x="179.47049"
           y="-25.247768">U</tspan></text>
    </g>
    <rect
       style="fill:#ffffff;stroke:#000000;stroke-width:0.264582"
       id="rect7021"
       width="5.9074836"
       height="6.2752309"
       x="-174.52115"
       y="35.317959" />
    <rect
       style="fill:#ffffff;stroke:#000000;stroke-width:0.264582"
       id="rect7023"
       width="4.5573616"
       height="3.8309002"
       x="-174.50868"
       y="36.504375" />
    <g
       id="g7255">
      <rect
         style="fill:#eeeeec;stroke:#000000;stroke-width:0.264582"
         id="rect7025"
         width="3.1684558"
         height="6.5889301"
         x="-191.68738"
         y="41.069836" />
      <rect
         style="fill:#eeeeec;stroke:#000000;stroke-width:0.264582"
         id="rect7027"
         width="2.3337417"
         height="1.4714583"
         x="-191.20033"
         y="45.809746" />
    </g>
    <g
       id="g7261"
       transform="rotate(-15.930291,-206.58553,29.737813)">
      <rect
         style="fill:#eeeeec;stroke:#000000;stroke-width:0.264582"
         id="rect7257"
         width="3.1684558"
         height="6.5889301"
         x="-191.68738"
         y="41.069836" />
      <rect
         style="fill:#eeeeec;stroke:#000000;stroke-width:0.264582"
         id="rect7259"
         width="2.3337417"
         height="1.4714583"
         x="-191.20033"
         y="45.809746" />
    </g>
    <g
       id="g7267"
       transform="rotate(9.799679,-139.20191,28.584199)">
      <rect
         style="fill:#eeeeec;stroke:#000000;stroke-width:0.264582"
         id="rect7263"
         width="3.1684558"
         height="6.5889301"
         x="-191.68738"
         y="41.069836" />
      <rect
         style="fill:#eeeeec;stroke:#000000;stroke-width:0.264582"
         id="rect7265"
         width="2.3337417"
         height="1.4714583"
         x="-191.20033"
         y="45.809746" />
    </g>
    <g
       id="g7273"
       transform="rotate(9.799679,-181.76838,15.555623)">
      <rect
         style="fill:#eeeeec;stroke:#000000;stroke-width:0.264582"
         id="rect7269"
         width="3.1684558"
         height="6.5889301"
         x="-191.68738"
         y="41.069836" />
      <rect
         style="fill:#eeeeec;stroke:#000000;stroke-width:0.264582"
         id="rect7271"
         width="2.3337417"
         height="1.4714583"
         x="-191.20033"
         y="45.809746" />
    </g>
    <g
       id="g7279"
       transform="rotate(88.506828,-195.18288,43.678135)">
      <rect
         style="fill:#eeeeec;stroke:#000000;stroke-width:0.264582"
         id="rect7275"
         width="3.1684558"
         height="6.5889301"
         x="-191.68738"
         y="41.069836" />
      <rect
         style="fill:#eeeeec;stroke:#000000;stroke-width:0.264582"
         id="rect7277"
         width="2.3337417"
         height="1.4714583"
         x="-191.20033"
         y="45.809746" />
    </g>
    <g
       id="g7285"
       transform="rotate(88.506828,-178.67329,39.545575)">
      <rect
         style="fill:#eeeeec;stroke:#000000;stroke-width:0.264582"
         id="rect7281"
         width="3.1684558"
         height="6.5889301"
         x="-191.68738"
         y="41.069836" />
      <rect
         style="fill:#eeeeec;stroke:#000000;stroke-width:0.264582"
         id="rect7283"
         width="2.3337417"
         height="1.4714583"
         x="-191.20033"
         y="45.809746" />
    </g>
    <g
       id="g7291"
       transform="rotate(-14.330186,-175.94027,1.6731048)">
      <rect
         style="fill:#eeeeec;stroke:#000000;stroke-width:0.264582"
         id="rect7287"
         width="3.1684558"
         height="6.5889301"
         x="-191.68738"
         y="41.069836" />
      <rect
         style="fill:#eeeeec;stroke:#000000;stroke-width:0.264582"
         id="rect7289"
         width="2.3337417"
         height="1.4714583"
         x="-191.20033"
         y="45.809746" />
    </g>
    <g
       id="g7297"
       transform="rotate(-14.330186,-246.90032,90.289375)">
      <rect
         style="fill:#eeeeec;stroke:#000000;stroke-width:0.264582"
         id="rect7293"
         width="3.1684558"
         height="6.5889301"
         x="-191.68738"
         y="41.069836" />
      <rect
         style="fill:#eeeeec;stroke:#000000;stroke-width:0.264582"
         id="rect7295"
         width="2.3337417"
         height="1.4714583"
         x="-191.20033"
         y="45.809746" />
    </g>
    <g
       id="g7668"
       transform="rotate(-5.780627,-260.22398,-30.054382)">
      <rect
         style="fill:#eeeeec;stroke:#000000;stroke-width:0.264582"
         id="rect7664"
         width="3.1684558"
         height="6.5889301"
         x="-191.68738"
         y="41.069836" />
      <rect
         style="fill:#eeeeec;stroke:#000000;stroke-width:0.264582"
         id="rect7666"
         width="2.3337417"
         height="1.4714583"
         x="-191.20033"
         y="45.809746" />
    </g>
    <g
       id="g7674"
       transform="rotate(144.66132,-187.60173,46.893251)">
      <rect
         style="fill:#eeeeec;stroke:#000000;stroke-width:0.264582"
         id="rect7670"
         width="3.1684558"
         height="6.5889301"
         x="-191.68738"
         y="41.069836" />
      <rect
         style="fill:#eeeeec;stroke:#000000;stroke-width:0.264582"
         id="rect7672"
         width="2.3337417"
         height="1.4714583"
         x="-191.20033"
         y="45.809746" />
    </g>
    <g
       id="g7680"
       transform="rotate(-173.57214,-195.03974,42.911437)">
      <rect
         style="fill:#eeeeec;stroke:#000000;stroke-width:0.264582"
         id="rect7676"
         width="3.1684558"
         height="6.5889301"
         x="-191.68738"
         y="41.069836" />
      <rect
         style="fill:#eeeeec;stroke:#000000;stroke-width:0.264582"
         id="rect7678"
         width="2.3337417"
         height="1.4714583"
         x="-191.20033"
         y="45.809746" />
    </g>
    <g
       id="g7686"
       transform="rotate(-173.57214,-193.72519,38.042641)">
      <rect
         style="fill:#eeeeec;stroke:#000000;stroke-width:0.264582"
         id="rect7682"
         width="3.1684558"
         height="6.5889301"
         x="-191.68738"
         y="41.069836" />
      <rect
         style="fill:#eeeeec;stroke:#000000;stroke-width:0.264582"
         id="rect7684"
         width="2.3337417"
         height="1.4714583"
         x="-191.20033"
         y="45.809746" />
    </g>
    <path
       id="rect7789"
       style="fill:#d3d7cf;stroke:#000000;stroke-width:0.999995"
       d="M -833.7793 159.40039 L -833.7793 238.10938 L -992.12695 238.10938 L -992.12695 264.56641 L -1018.582 264.56641 L -1018.582 291.02344 L -992.12695 291.02344 L -992.12695 330.56641 L -1018.582 330.56641 L -1018.582 357.02344 L -992.12695 357.02344 L -992.12695 422.56641 L -1018.582 422.56641 L -1018.582 449.02344 L -992.12695 449.02344 L -992.12695 542.36133 L -806.92969 542.36133 L -806.92969 462.99219 L -780.47266 462.99219 L -780.47266 436.53516 L -806.92969 436.53516 L -806.92969 343.9375 L -780.47266 343.9375 L -780.47266 317.48047 L -806.92969 317.48047 L -806.92969 238.10938 L -807.32227 238.10938 L -807.32227 159.40039 L -833.7793 159.40039 z M -1018.7363 515.94531 L -1018.7363 542.40234 L -992.28125 542.40234 L -992.28125 515.94531 L -1018.7363 515.94531 z "
       transform="scale(0.26458333)" />
    <rect
       style="fill:#8f5902;fill-opacity:1;stroke:none;stroke-width:0.264582"
       id="rect9358"
       width="10.5"
       height="10.5"
       x="-109.19472"
       y="224.91328"
       transform="rotate(45)" />
    <rect
       style="fill:#8f5902;fill-opacity:1;stroke:none;stroke-width:0.264582"
       id="rect9082"
       width="10.5"
       height="10.5"
       x="-119.09419"
       y="215.01376"
       transform="rotate(45)" />
    <rect
       style="fill:#8f5902;fill-opacity:1;stroke:none;stroke-width:0.264582"
       id="rect9360"
       width="31.499996"
       height="3.5"
       x="-252"
       y="87.5" />
    <path
       style="fill:none;stroke:#000000;stroke-width:0.264583px;stroke-linecap:butt;stroke-linejoin:miter;stroke-opacity:1"
       d="m -213.74097,58.974887 h -6.72169"
       id="path5837" />
    <path
       style="fill:none;stroke:#000000;stroke-width:0.264583px;stroke-linecap:butt;stroke-linejoin:miter;stroke-opacity:1"
       d="m -215.98194,62.231707 h -2.2991"
       id="path5839" />
    <path
       style="fill:none;stroke:#000000;stroke-width:0.264583px;stroke-linecap:butt;stroke-linejoin:miter;stroke-opacity:1"
       d="m -214.59868,60.068467 h -5.10527"
       id="path5841" />
    <path
       style="fill:none;stroke:#000000;stroke-width:0.264583px;stroke-linecap:butt;stroke-linejoin:miter;stroke-opacity:1"
       d="m -215.10429,61.086207 h -4.20913"
       id="path5843" />
    <path
       style="fill:none;stroke:#888a85;stroke-width:0.264583px;stroke-linecap:butt;stroke-linejoin:miter;stroke-opacity:1"
       d="m -213.74097,59.20175 h -6.72169"
       id="path5845" />
    <path
       style="fill:none;stroke:#888a85;stroke-width:0.264583px;stroke-linecap:butt;stroke-linejoin:miter;stroke-opacity:1"
       d="m -214.59868,60.340767 h -5.10527"
       id="path5847" />
    <path
       style="fill:none;stroke:#888a85;stroke-width:0.264583px;stroke-linecap:butt;stroke-linejoin:miter;stroke-opacity:1"
       d="m -215.10429,61.356202 h -4.20913"
       id="path5849" />
    <path
       style="fill:none;stroke:#888a85;stroke-width:0.264583px;stroke-linecap:butt;stroke-linejoin:miter;stroke-opacity:1"
       d="m -215.98194,62.475195 h -2.2991"
       id="path5851" />
    <path
       style="fill:none;stroke:#888a85;stroke-width:0.264583px;stroke-linecap:butt;stroke-linejoin:miter;stroke-opacity:1"
       d="m -213.74097,57.920797 h -6.72169"
       id="path5853" />
    <path
       style="fill:none;stroke:#000000;stroke-width:0.264583px;stroke-linecap:butt;stroke-linejoin:miter;stroke-opacity:1"
       d="m -213.74097,57.661897 h -6.72169"
       id="path7853" />
    <g
       id="g10268">
      <path
         style="fill:#ffffff;stroke:none;stroke-width:0.264583px;stroke-linecap:butt;stroke-linejoin:miter;stroke-opacity:1"
         d="m -271.71263,76.201611 0.30013,-4.61411 1.46998,-0.61813 0.99138,0.26332 0.54737,0.65817 0.19659,4.37884 z"
         id="path9856" />
      <text
         xml:space="preserve"
         style="font-style:normal;font-weight:normal;font-size:7.57471px;line-height:1.25;font-family:sans-serif;fill:#888a85;fill-opacity:1;stroke:none;stroke-width:0.264583"
         x="267.28152"
         y="-70.81958"
         id="text9860"
         transform="scale(-1)"><tspan
           sodipodi:role="line"
           id="tspan9858"
           style="fill:#888a85;stroke:none;stroke-width:0.264583"
           x="267.28152"
           y="-70.81958">U</tspan></text>
    </g>
    <rect
       style="fill:#ffffff;fill-opacity:1;stroke:#000000;stroke-width:0.264582;stroke-opacity:1"
       id="rect8194"
       width="1.4238449"
       height="3.5442319"
       x="-263.02917"
       y="73.447212" />
    <rect
       style="fill:#ffffff;fill-opacity:1;stroke:#000000;stroke-width:0.264582;stroke-opacity:1"
       id="rect8196"
       width="1.4238449"
       height="3.5442319"
       x="-263.02917"
       y="69.955772" />
    <rect
       style="fill:#8f5902;fill-opacity:1;stroke:none;stroke-width:0.264582"
       id="rect9258"
       width="31.499996"
       height="3.5"
       x="-251.99998"
       y="73.5" />
    <circle
       style="fill:#888a85;stroke:#2e3436;stroke-width:0.264582"
       id="circle3990-3"
       cx="-250.23289"
       cy="75.25"
       r="1.75" />
    <circle
       style="fill:#888a85;stroke:#2e3436;stroke-width:0.264582"
       id="circle8275"
       cx="-236.47452"
       cy="75.25"
       r="1.75" />
    <circle
       style="fill:#888a85;stroke:#2e3436;stroke-width:0.264582"
       id="circle8277"
       cx="-222.18698"
       cy="75.25"
       r="1.75" />
    <circle
       style="fill:#888a85;stroke:#2e3436;stroke-width:0.264582"
       id="circle8279"
       cx="-250.23289"
       cy="89.25"
       r="1.75" />
    <rect
       style="fill:#8f5902;fill-opacity:1;stroke:none;stroke-width:0.264582"
       id="rect9362"
       width="10.5"
       height="10.5"
       x="-99.295204"
       y="234.81277"
       transform="rotate(45)" />
    <circle
       style="fill:#888a85;stroke:#2e3436;stroke-width:0.264582"
       id="circle8281"
       cx="-236.47452"
       cy="89.25"
       r="1.75" />
    <rect
       style="fill:#8f5902;fill-opacity:1;stroke:none;stroke-width:0.264582"
       id="rect9364"
       width="31.499996"
       height="3.5"
       x="-252"
       y="101.5" />
    <circle
       style="fill:#888a85;stroke:#2e3436;stroke-width:0.264582"
       id="circle8283"
       cx="-222.18698"
       cy="89.25"
       r="1.75" />
    <rect
       style="fill:#8f5902;fill-opacity:1;stroke:none;stroke-width:0.264582"
       id="rect9366"
       width="10.5"
       height="10.5"
       x="-89.395706"
       y="244.71227"
       transform="rotate(45)" />
    <circle
       style="fill:#888a85;stroke:#2e3436;stroke-width:0.264582"
       id="circle8285"
       cx="-250.23289"
       cy="103.25"
       r="1.75" />
    <rect
       style="fill:#8f5902;fill-opacity:1;stroke:none;stroke-width:0.264582"
       id="rect9368"
       width="31.499996"
       height="3.5"
       x="-252"
       y="115.5" />
    <circle
       style="fill:#888a85;stroke:#2e3436;stroke-width:0.264582"
       id="circle8287"
       cx="-236.47452"
       cy="103.25"
       r="1.75" />
    <rect
       style="fill:#8f5902;fill-opacity:1;stroke:none;stroke-width:0.264582"
       id="rect9370"
       width="10.5"
       height="10.5"
       x="-79.496208"
       y="254.61176"
       transform="rotate(45)" />
    <circle
       style="fill:#888a85;stroke:#2e3436;stroke-width:0.264582"
       id="circle8289"
       cx="-222.18698"
       cy="103.25"
       r="1.75" />
    <rect
       style="fill:#8f5902;fill-opacity:1;stroke:none;stroke-width:0.264582"
       id="rect9372"
       width="31.499996"
       height="3.5"
       x="-252"
       y="129.5" />
    <circle
       style="fill:#888a85;stroke:#2e3436;stroke-width:0.264582"
       id="circle8291"
       cx="-250.23289"
       cy="117.25"
       r="1.75" />
    <circle
       style="fill:#888a85;stroke:#2e3436;stroke-width:0.264582"
       id="circle8293"
       cx="-236.47452"
       cy="117.25"
       r="1.75" />
    <circle
       style="fill:#888a85;stroke:#2e3436;stroke-width:0.264582"
       id="circle8295"
       cx="-222.18698"
       cy="117.25"
       r="1.75" />
    <circle
       style="fill:#888a85;stroke:#2e3436;stroke-width:0.264582"
       id="circle8297"
       cx="-250.23289"
       cy="131.25"
       r="1.75" />
    <circle
       style="fill:#888a85;stroke:#2e3436;stroke-width:0.264582"
       id="circle8299"
       cx="-236.47452"
       cy="131.25"
       r="1.75" />
    <circle
       style="fill:#888a85;stroke:#2e3436;stroke-width:0.264582"
       id="circle8301"
       cx="-222.18698"
       cy="131.25"
       r="1.75" />
    <rect
       style="fill:#ffffff;fill-opacity:1;stroke:#000000;stroke-width:0.264583;stroke-opacity:1"
       id="rect8303"
       width="1.3494194"
       height="6.6220455"
       x="42.563942"
       y="218.64909"
       transform="matrix(0.09465592,0.99551005,-0.99577975,0.09177518,0,0)" />
    <rect
       style="fill:#d3d7cf;fill-opacity:1;stroke:none;stroke-width:0.264582"
       id="rect8591"
       width="6.7221174"
       height="2.9580441"
       x="-220.46152"
       y="40.1516" />
    <rect
       style="fill:#ffffff;fill-opacity:1;stroke:#000000;stroke-width:0.264583;stroke-opacity:1"
       id="rect8848"
       width="1.3494194"
       height="6.6220455"
       x="-198.76483"
       y="140.37473"
       transform="matrix(0.99290956,0.11887226,-0.12174458,0.99256146,0,0)" />
    <rect
       style="fill:#ffffff;fill-opacity:1;stroke:#000000;stroke-width:0.264583;stroke-opacity:1"
       id="rect8852"
       width="1.3494194"
       height="6.6220455"
       x="-222.00542"
       y="63.356651"
       transform="matrix(0.99555244,-0.09420899,0.09132813,0.99582085,0,0)" />
    <rect
       style="fill:#ffffff;fill-opacity:1;stroke:#000000;stroke-width:0.264582;stroke-opacity:1"
       id="rect8994"
       width="1.4238449"
       height="3.5442319"
       x="-263.02917"
       y="90.909706" />
    <rect
       style="fill:#ffffff;fill-opacity:1;stroke:#000000;stroke-width:0.264582;stroke-opacity:1"
       id="rect8996"
       width="1.4238449"
       height="3.5442319"
       x="-263.02917"
       y="87.418266" />
    <rect
       style="fill:#ffffff;fill-opacity:1;stroke:#000000;stroke-width:0.264582;stroke-opacity:1"
       id="rect9000"
       width="1.4238449"
       height="3.5442319"
       x="-263.02917"
       y="115.25134" />
    <rect
       style="fill:#ffffff;fill-opacity:1;stroke:#000000;stroke-width:0.264582;stroke-opacity:1"
       id="rect9002"
       width="1.4238449"
       height="3.5442319"
       x="-263.02917"
       y="111.75991" />
    <rect
       style="fill:#ffffff;fill-opacity:1;stroke:#000000;stroke-width:0.264582;stroke-opacity:1"
       id="rect9006"
       width="1.4238449"
       height="3.5442319"
       x="-263.07007"
       y="139.95784" />
    <rect
       style="fill:#ffffff;fill-opacity:1;stroke:#000000;stroke-width:0.264582;stroke-opacity:1"
       id="rect9008"
       width="1.4238449"
       height="3.5442319"
       x="-263.07007"
       y="136.4664" />
    <path
       id="rect9571"
       style="fill:#d3d7cf;fill-opacity:1;stroke:#000000;stroke-width:0.999995"
       d="M -780.47266 291.02344 L -780.47266 489.44922 L -767.24414 489.44922 L -767.24414 568.81836 L -740.78711 568.81836 L -687.87305 568.81836 L -687.87305 542.36133 L -740.78711 542.36133 L -740.78711 489.44922 L -648.18945 489.44922 L -648.18945 291.02344 L -780.47266 291.02344 z "
       transform="scale(0.26458333)" />
    <path
       style="fill:none;stroke:#000000;stroke-width:0.264583px;stroke-linecap:butt;stroke-linejoin:miter;stroke-opacity:1"
       d="m -208.96782,90.860924 v -6.72169"
       id="path9675" />
    <path
       style="fill:none;stroke:#000000;stroke-width:0.264583px;stroke-linecap:butt;stroke-linejoin:miter;stroke-opacity:1"
       d="m -212.22464,88.619954 v -2.2991"
       id="path9677" />
    <path
       style="fill:none;stroke:#000000;stroke-width:0.264583px;stroke-linecap:butt;stroke-linejoin:miter;stroke-opacity:1"
       d="m -210.0614,90.003214 v -5.10527"
       id="path9679" />
    <path
       style="fill:none;stroke:#000000;stroke-width:0.264583px;stroke-linecap:butt;stroke-linejoin:miter;stroke-opacity:1"
       d="m -211.07914,89.497604 v -4.20913"
       id="path9681" />
    <path
       style="fill:none;stroke:#888a85;stroke-width:0.264583px;stroke-linecap:butt;stroke-linejoin:miter;stroke-opacity:1"
       d="m -209.19468,90.860924 v -6.72169"
       id="path9683" />
    <path
       style="fill:none;stroke:#888a85;stroke-width:0.264583px;stroke-linecap:butt;stroke-linejoin:miter;stroke-opacity:1"
       d="m -210.3337,90.003214 v -5.10527"
       id="path9685" />
    <path
       style="fill:none;stroke:#888a85;stroke-width:0.264583px;stroke-linecap:butt;stroke-linejoin:miter;stroke-opacity:1"
       d="m -211.34913,89.497604 v -4.20913"
       id="path9687" />
    <path
       style="fill:none;stroke:#888a85;stroke-width:0.264583px;stroke-linecap:butt;stroke-linejoin:miter;stroke-opacity:1"
       d="m -212.46812,88.619954 v -2.2991"
       id="path9689" />
    <path
       style="fill:none;stroke:#888a85;stroke-width:0.264583px;stroke-linecap:butt;stroke-linejoin:miter;stroke-opacity:1"
       d="m -207.91373,90.860924 v -6.72169"
       id="path9691" />
    <path
       style="fill:none;stroke:#000000;stroke-width:0.264583px;stroke-linecap:butt;stroke-linejoin:miter;stroke-opacity:1"
       d="m -207.65483,90.860924 v -6.72169"
       id="path9693" />
    <path
       style="fill:none;stroke:#000000;stroke-width:0.264583px;stroke-linecap:butt;stroke-linejoin:miter;stroke-opacity:1"
       d="m -208.96782,122.36926 v -6.7217"
       id="path9695" />
    <path
       style="fill:none;stroke:#000000;stroke-width:0.264583px;stroke-linecap:butt;stroke-linejoin:miter;stroke-opacity:1"
       d="m -212.22464,120.12828 v -2.2991"
       id="path9697" />
    <path
       style="fill:none;stroke:#000000;stroke-width:0.264583px;stroke-linecap:butt;stroke-linejoin:miter;stroke-opacity:1"
       d="m -210.0614,121.51155 v -5.10528"
       id="path9699" />
    <path
       style="fill:none;stroke:#000000;stroke-width:0.264583px;stroke-linecap:butt;stroke-linejoin:miter;stroke-opacity:1"
       d="M -211.07914,121.00594 V 116.7968"
       id="path9701" />
    <path
       style="fill:none;stroke:#888a85;stroke-width:0.264583px;stroke-linecap:butt;stroke-linejoin:miter;stroke-opacity:1"
       d="m -209.19468,122.36926 v -6.7217"
       id="path9703" />
    <path
       style="fill:none;stroke:#888a85;stroke-width:0.264583px;stroke-linecap:butt;stroke-linejoin:miter;stroke-opacity:1"
       d="m -210.3337,121.51155 v -5.10528"
       id="path9705" />
    <path
       style="fill:none;stroke:#888a85;stroke-width:0.264583px;stroke-linecap:butt;stroke-linejoin:miter;stroke-opacity:1"
       d="M -211.34913,121.00594 V 116.7968"
       id="path9707" />
    <path
       style="fill:none;stroke:#888a85;stroke-width:0.264583px;stroke-linecap:butt;stroke-linejoin:miter;stroke-opacity:1"
       d="m -212.46812,120.12828 v -2.2991"
       id="path9709" />
    <path
       style="fill:none;stroke:#888a85;stroke-width:0.264583px;stroke-linecap:butt;stroke-linejoin:miter;stroke-opacity:1"
       d="m -207.91373,122.36926 v -6.7217"
       id="path9711" />
    <path
       style="fill:none;stroke:#000000;stroke-width:0.264583px;stroke-linecap:butt;stroke-linejoin:miter;stroke-opacity:1"
       d="m -207.65483,122.36926 v -6.7217"
       id="path9713" />
    <rect
       style="fill:#ffffff;fill-opacity:1;stroke:#000000;stroke-width:0.264582;stroke-opacity:1"
       id="rect9715"
       width="1.4238449"
       height="3.5442319"
       x="-206.93744"
       y="87.472878" />
    <rect
       style="fill:#ffffff;fill-opacity:1;stroke:#000000;stroke-width:0.264582;stroke-opacity:1"
       id="rect9717"
       width="1.4238449"
       height="3.5442319"
       x="-206.93744"
       y="83.981438" />
    <rect
       style="fill:#ffffff;fill-opacity:1;stroke:#000000;stroke-width:0.264582;stroke-opacity:1"
       id="rect9719"
       width="1.4238449"
       height="3.5442319"
       x="-206.93744"
       y="118.9555" />
    <rect
       style="fill:#ffffff;fill-opacity:1;stroke:#000000;stroke-width:0.264582;stroke-opacity:1"
       id="rect9721"
       width="1.4238449"
       height="3.5442319"
       x="-206.93744"
       y="115.46406" />
    <g
       id="g9907"
       transform="translate(7.4210663,98.190819)">
      <path
         style="fill:#2e3436;stroke:#000000;stroke-width:0.264583px;stroke-linecap:butt;stroke-linejoin:miter;stroke-opacity:1"
         d="m -183.88619,30.601303 0.30013,-4.614114 1.46998,-0.618129 0.99138,0.263318 0.54737,0.658176 0.19659,4.37884 z"
         id="path9901" />
      <text
         xml:space="preserve"
         style="font-style:normal;font-weight:normal;font-size:7.57471px;line-height:1.25;font-family:sans-serif;fill:#000000;fill-opacity:1;stroke:none;stroke-width:0.264583"
         x="179.47049"
         y="-25.247768"
         id="text9905"
         transform="scale(-1)"><tspan
           sodipodi:role="line"
           id="tspan9903"
           style="stroke:none;stroke-width:0.264583"
           x="179.47049"
           y="-25.247768">U</tspan></text>
    </g>
    <rect
       style="fill:#d3d7cf;stroke:#000000;stroke-width:0.264582"
       id="rect9909"
       width="21"
       height="7"
       x="-171.40378"
       y="105.11604" />
    <rect
       style="fill:#ffffff;fill-opacity:1;stroke:#000000;stroke-width:0.264582;stroke-opacity:1"
       id="rect9911"
       width="1.4238449"
       height="3.5442319"
       x="-172.20689"
       y="108.58755" />
    <rect
       style="fill:#ffffff;fill-opacity:1;stroke:#000000;stroke-width:0.264582;stroke-opacity:1"
       id="rect9913"
       width="1.4238449"
       height="3.5442319"
       x="-172.20689"
       y="105.09612" />
    <g
       id="g10051">
      <path
         style="fill:#ffffff;stroke:none;stroke-width:0.264583px;stroke-linecap:butt;stroke-linejoin:miter;stroke-opacity:1"
         d="m -162.62843,111.25018 0.30013,-4.61411 1.46998,-0.61813 0.99138,0.26332 0.54737,0.65817 0.19659,4.37884 z"
         id="path10001" />
      <text
         xml:space="preserve"
         style="font-style:normal;font-weight:normal;font-size:7.57471px;line-height:1.25;font-family:sans-serif;fill:#888a85;fill-opacity:1;stroke:none;stroke-width:0.264583"
         x="158.07504"
         y="-105.85917"
         id="text10005"
         transform="scale(-1)"><tspan
           sodipodi:role="line"
           id="tspan10003"
           style="fill:#888a85;stroke:none;stroke-width:0.264583"
           x="158.07504"
           y="-105.85917">U</tspan></text>
    </g>
    <rect
       style="fill:#d3d7cf;fill-opacity:1;stroke:#000000;stroke-width:0.264582"
       id="rect10528"
       width="27.944441"
       height="42"
       x="-189"
       y="136.5" />
    <rect
       style="fill:#ffffff;fill-opacity:1;stroke:#000000;stroke-width:0.264582;stroke-opacity:1"
       id="rect10610"
       width="1.4238449"
       height="3.5442319"
       x="-189.89468"
       y="146.9472" />
    <rect
       style="fill:#ffffff;fill-opacity:1;stroke:#000000;stroke-width:0.264582;stroke-opacity:1"
       id="rect10612"
       width="1.4238449"
       height="3.5442319"
       x="-189.89468"
       y="143.45576" />
    <g
       id="g10620"
       transform="translate(-38.784069,31.395655)">
      <path
         style="fill:#ffffff;stroke:none;stroke-width:0.264583px;stroke-linecap:butt;stroke-linejoin:miter;stroke-opacity:1"
         d="m -162.62843,111.25018 0.30013,-4.61411 1.46998,-0.61813 0.99138,0.26332 0.54737,0.65817 0.19659,4.37884 z"
         id="path10614" />
      <text
         xml:space="preserve"
         style="font-style:normal;font-weight:normal;font-size:7.57471px;line-height:1.25;font-family:sans-serif;fill:#888a85;fill-opacity:1;stroke:none;stroke-width:0.264583"
         x="158.07504"
         y="-105.85917"
         id="text10618"
         transform="scale(-1)"><tspan
           sodipodi:role="line"
           id="tspan10616"
           style="fill:#888a85;stroke:none;stroke-width:0.264583"
           x="158.07504"
           y="-105.85917">U</tspan></text>
    </g>
    <path
       id="rect10644"
       style="fill:#d3d7cf;fill-opacity:1;stroke:#000000;stroke-width:0.999995"
       d="M -568.81836 383.62109 L -568.81836 582.04688 L -278.25 582.04688 L -278.25 476.2207 L -171.96875 476.2207 L -171.96875 449.76367 L -278.25 449.76367 L -278.25 383.62109 L -568.81836 383.62109 z "
       transform="scale(0.26458333)" />
    <rect
       style="fill:#ffffff;fill-opacity:1;stroke:#000000;stroke-width:0.264582;stroke-opacity:1"
       id="rect9915"
       width="1.4238449"
       height="3.5442319"
       x="-151.04021"
       y="108.58755" />
    <rect
       style="fill:#ffffff;fill-opacity:1;stroke:#000000;stroke-width:0.264582;stroke-opacity:1"
       id="rect9917"
       width="1.4238449"
       height="3.5442319"
       x="-151.04021"
       y="105.09612" />
    <rect
       style="fill:#d3d7cf;fill-opacity:1;stroke:#000000;stroke-width:0.264582"
       id="rect10748"
       width="10.5"
       height="7"
       x="-161"
       y="143.49998" />
    <rect
       style="fill:#ffffff;fill-opacity:1;stroke:#000000;stroke-width:0.264582;stroke-opacity:1"
       id="rect10830"
       width="1.4238449"
       height="3.5442319"
       x="-151.04021"
       y="147" />
    <rect
       style="fill:#ffffff;fill-opacity:1;stroke:#000000;stroke-width:0.264582;stroke-opacity:1"
       id="rect10832"
       width="1.4238449"
       height="3.5442319"
       x="-151.04021"
       y="143.50858" />
    <rect
       style="fill:#ffffff;fill-opacity:1;stroke:#000000;stroke-width:0.264582;stroke-opacity:1"
       id="rect10834"
       width="1.4238449"
       height="3.5442319"
       x="-161.62355"
       y="147" />
    <rect
       style="fill:#ffffff;fill-opacity:1;stroke:#000000;stroke-width:0.264582;stroke-opacity:1"
       id="rect10836"
       width="1.4238449"
       height="3.5442319"
       x="-161.62355"
       y="143.50858" />
    <path
       style="fill:none;stroke:#000000;stroke-width:0.264583px;stroke-linecap:butt;stroke-linejoin:miter;stroke-opacity:1"
       d="m -155.31302,150.35544 v -6.72169"
       id="path10918" />
    <path
       style="fill:none;stroke:#000000;stroke-width:0.264583px;stroke-linecap:butt;stroke-linejoin:miter;stroke-opacity:1"
       d="m -158.56984,148.11447 v -2.2991"
       id="path10920" />
    <path
       style="fill:none;stroke:#000000;stroke-width:0.264583px;stroke-linecap:butt;stroke-linejoin:miter;stroke-opacity:1"
       d="m -156.4066,149.49773 v -5.10527"
       id="path10922" />
    <path
       style="fill:none;stroke:#000000;stroke-width:0.264583px;stroke-linecap:butt;stroke-linejoin:miter;stroke-opacity:1"
       d="m -157.42434,148.99212 v -4.20913"
       id="path10924" />
    <path
       style="fill:none;stroke:#888a85;stroke-width:0.264583px;stroke-linecap:butt;stroke-linejoin:miter;stroke-opacity:1"
       d="m -155.53988,150.35544 v -6.72169"
       id="path10926" />
    <path
       style="fill:none;stroke:#888a85;stroke-width:0.264583px;stroke-linecap:butt;stroke-linejoin:miter;stroke-opacity:1"
       d="m -156.6789,149.49773 v -5.10527"
       id="path10928" />
    <path
       style="fill:none;stroke:#888a85;stroke-width:0.264583px;stroke-linecap:butt;stroke-linejoin:miter;stroke-opacity:1"
       d="m -157.69433,148.99212 v -4.20913"
       id="path10930" />
    <path
       style="fill:none;stroke:#888a85;stroke-width:0.264583px;stroke-linecap:butt;stroke-linejoin:miter;stroke-opacity:1"
       d="m -158.81332,148.11447 v -2.2991"
       id="path10932" />
    <path
       style="fill:none;stroke:#888a85;stroke-width:0.264583px;stroke-linecap:butt;stroke-linejoin:miter;stroke-opacity:1"
       d="m -154.25893,150.35544 v -6.72169"
       id="path10934" />
    <path
       style="fill:none;stroke:#000000;stroke-width:0.264583px;stroke-linecap:butt;stroke-linejoin:miter;stroke-opacity:1"
       d="m -154.00003,150.35544 v -6.72169"
       id="path10936" />
    <g
       id="g11158"
       transform="translate(105.49742,122.47646)">
      <path
         style="fill:#2e3436;stroke:#000000;stroke-width:0.264583px;stroke-linecap:butt;stroke-linejoin:miter;stroke-opacity:1"
         d="m -183.88619,30.601303 0.30013,-4.614114 1.46998,-0.618129 0.99138,0.263318 0.54737,0.658176 0.19659,4.37884 z"
         id="path11152" />
      <text
         xml:space="preserve"
         style="font-style:normal;font-weight:normal;font-size:7.57471px;line-height:1.25;font-family:sans-serif;fill:#000000;fill-opacity:1;stroke:none;stroke-width:0.264583"
         x="179.47049"
         y="-25.247768"
         id="text11156"
         transform="scale(-1)"><tspan
           sodipodi:role="line"
           id="tspan11154"
           style="stroke:none;stroke-width:0.264583"
           x="179.47049"
           y="-25.247768">U</tspan></text>
    </g>
    <rect
       style="fill:#ffffff;fill-opacity:1;stroke:#000000;stroke-width:0.264582;stroke-opacity:1"
       id="rect11267"
       width="1.4238449"
       height="3.5442319"
       x="-74.394676"
       y="122.49142" />
    <rect
       style="fill:#ffffff;fill-opacity:1;stroke:#000000;stroke-width:0.264582;stroke-opacity:1"
       id="rect11269"
       width="1.4238449"
       height="3.5442319"
       x="-74.394676"
       y="119" />
    <g
       id="g11277"
       transform="translate(100.67372,13.648071)">
      <path
         style="fill:#ffffff;stroke:none;stroke-width:0.264583px;stroke-linecap:butt;stroke-linejoin:miter;stroke-opacity:1"
         d="m -162.62843,111.25018 0.30013,-4.61411 1.46998,-0.61813 0.99138,0.26332 0.54737,0.65817 0.19659,4.37884 z"
         id="path11271" />
      <text
         xml:space="preserve"
         style="font-style:normal;font-weight:normal;font-size:7.57471px;line-height:1.25;font-family:sans-serif;fill:#888a85;fill-opacity:1;stroke:none;stroke-width:0.264583"
         x="158.07504"
         y="-105.85917"
         id="text11275"
         transform="scale(-1)"><tspan
           sodipodi:role="line"
           id="tspan11273"
           style="fill:#888a85;stroke:none;stroke-width:0.264583"
           x="158.07504"
           y="-105.85917">U</tspan></text>
    </g>
    <rect
       style="fill:#d3d7cf;fill-opacity:1;stroke:#000000;stroke-width:0.52916667;stroke-miterlimit:4;stroke-dasharray:0.52916667,0.52916667;stroke-dashoffset:0"
       id="rect11301"
       width="7"
       height="7"
       x="-143.49998"
       y="108.5" />
    <rect
       style="fill:#d3d7cf;fill-opacity:1;stroke:#000000;stroke-width:0.529167;stroke-miterlimit:4;stroke-dasharray:0.529167, 0.529167;stroke-dashoffset:0"
       id="rect11401"
       width="7"
       height="7"
       x="-143.5"
       y="122.5" />
    <rect
       style="fill:#d3d7cf;fill-opacity:1;stroke:#000000;stroke-width:0.529167;stroke-miterlimit:4;stroke-dasharray:0.529167, 0.529167;stroke-dashoffset:0"
       id="rect11403"
       width="7"
       height="10.5"
       x="-143.5"
       y="136.5" />
    <rect
       style="fill:#d3d7cf;fill-opacity:1;stroke:#000000;stroke-width:0.529167;stroke-miterlimit:4;stroke-dasharray:0.529167, 0.529167;stroke-dashoffset:0"
       id="rect11405"
       width="7"
       height="10.5"
       x="-129.5"
       y="122.5" />
    <rect
       style="fill:#d3d7cf;fill-opacity:1;stroke:#000000;stroke-width:0.529167;stroke-miterlimit:4;stroke-dasharray:0.529167, 0.529167;stroke-dashoffset:0"
       id="rect11489"
       width="7"
       height="10.5"
       x="108.5"
       y="119"
       transform="rotate(90)" />
    <rect
       style="fill:#d3d7cf;fill-opacity:1;stroke:#000000;stroke-width:0.529167;stroke-miterlimit:4;stroke-dasharray:0.529167, 0.529167;stroke-dashoffset:0"
       id="rect11491"
       width="7"
       height="10.5"
       x="108.5"
       y="101.5"
       transform="rotate(90)" />
    <rect
       style="fill:#d3d7cf;fill-opacity:1;stroke:#000000;stroke-width:0.529167;stroke-miterlimit:4;stroke-dasharray:0.529167, 0.529167;stroke-dashoffset:0"
       id="rect11493"
       width="7"
       height="10.5"
       x="-80.5"
       y="108.5" />
    <rect
       style="fill:#d3d7cf;fill-opacity:1;stroke:#000000;stroke-width:0.529167;stroke-miterlimit:4;stroke-dasharray:0.529167, 0.529167;stroke-dashoffset:0"
       id="rect11495"
       width="7"
       height="10.5"
       x="-80.5"
       y="126" />
    <rect
       style="fill:#d3d7cf;fill-opacity:1;stroke:#000000;stroke-width:0.529167;stroke-miterlimit:4;stroke-dasharray:0.529167, 0.529167;stroke-dashoffset:0"
       id="rect11497"
       width="7"
       height="7"
       x="-129.5"
       y="140" />
    <rect
       style="fill:#d3d7cf;fill-opacity:1;stroke:#000000;stroke-width:0.529167;stroke-miterlimit:4;stroke-dasharray:0.529167, 0.529167;stroke-dashoffset:0"
       id="rect11499"
       width="7"
       height="7"
       x="-112"
       y="122.5" />
    <rect
       style="fill:#d3d7cf;fill-opacity:1;stroke:#000000;stroke-width:0.529167;stroke-miterlimit:4;stroke-dasharray:0.529167, 0.529167;stroke-dashoffset:0"
       id="rect11501"
       width="7"
       height="10.5"
       x="-112"
       y="136.5" />
    <rect
       style="fill:#d3d7cf;fill-opacity:1;stroke:#000000;stroke-width:0.529167;stroke-miterlimit:4;stroke-dasharray:0.529167, 0.529167;stroke-dashoffset:0"
       id="rect11503"
       width="7"
       height="10.5"
       x="122.5"
       y="87.5"
       transform="rotate(90)" />
    <rect
       style="fill:#d3d7cf;fill-opacity:1;stroke:#000000;stroke-width:0.529167;stroke-miterlimit:4;stroke-dasharray:0.529167, 0.529167;stroke-dashoffset:0"
       id="rect11609"
       width="7"
       height="7"
       x="-94.5"
       y="108.5" />
    <rect
       style="fill:#d3d7cf;fill-opacity:1;stroke:#000000;stroke-width:0.529167;stroke-miterlimit:4;stroke-dasharray:0.529167, 0.529167;stroke-dashoffset:0"
       id="rect11611"
       width="7"
       height="7"
       x="-98"
       y="136.5" />
  </g>
  <g
     inkscape:groupmode="layer"
     id="layer2"
     inkscape:label="dm"
     sodipodi:insensitive="true">
    <text
       xml:space="preserve"
       style="font-style:normal;font-weight:normal;font-size:4.02778px;line-height:1.25;font-family:sans-serif;letter-spacing:0px;word-spacing:0px;fill:#ffffff;fill-opacity:1;stroke:none;stroke-width:0.264583"
       x="-271.11755"
       y="-11.486733"
       id="text5750"><tspan
         sodipodi:role="line"
         id="tspan5748"
         style="fill:#ffffff;stroke-width:0.264583"
         x="-271.11755"
         y="-11.486733">⑯</tspan></text>
  </g>
</svg>
